{
    "ProjectName"  : "Demo",
    "author" : "xxx",
    
    "model" :
    {
        
        "SHOT" :
        {
            "! id"					: 21603,
            "title"					: "Moon",
            "width"					: 400,
            "height"				: 300,
            "views_count"			: 1693,
            "likes_count"			: 15,
            "comments_count"		: 4,
            "rebounds_count"		: 0,
            "rebound_source_id"		: 21595,
            "created_at"			: "2010/05/21 16:34:42 -0400",
            "player"				: "{PLAYER}"
        }
    },
    
    "controller" :
    {
        // Returns the specified list of shots where :list has one of the following values: debuts, everyone, popular
        "GET /shots/:list" :
        {
            "request"	:
            {
                "page"		: 1,
                "per_page"	: 10
            },
            "response"	:
            {
                "page"		: 1,
                "pages"		: 50,
                "per_page"	: 15,
                "total"		: 750,
                "shots"		: ["{SHOT}"]
            }
        }
    }
}
